{
  "name": "Uniswap Default List",
  "logoURI": "ipfs://QmNa8mQkrNKp1WEEeGjFezDmDeodkWRevGFN8JCV7b4Xir",
  "keywords": ["avalanche", "defi", "ethereum", "bridge"],
  "version": {
    "major": 3,
    "minor": 1,
    "patch": 0
  },
  "timestamp": "2021-12-09T10:25:00+00:00",
  "tokens": [
    {
      "chainId": 43114,
      "address": "0x60781C2586D68229fde47564546784ab3fACA982",
      "decimals": 18,
      "name": "Pangolin",
      "symbol": "PNG",
      "logoURI": "https://raw.githubusercontent.com/ava-labs/bridge-tokens/main/avalanche-tokens/0x60781C2586D68229fde47564546784ab3fACA982/logo.png"
    },
    {
      "chainId": 43114,
      "address": "0xB31f66AA3C1e785363F0875A1B74E27b85FD66c7",
      "decimals": 18,
      "name": "Wrapped AVAX",
      "symbol": "WAVAX",
      "logoURI": "https://raw.githubusercontent.com/ava-labs/bridge-tokens/main/avalanche-tokens/0xB31f66AA3C1e785363F0875A1B74E27b85FD66c7/logo.png"
    },
    {
      "chainId": 43114,
      "address": "0xd501281565bf7789224523144Fe5D98e8B28f267",
      "decimals": 18,
      "name": "1INCH Token",
      "symbol": "1INCH.e",
      "logoURI": "https://raw.githubusercontent.com/ava-labs/avalanche-bridge-resources/main/tokens/1INCH/logo.png"
    },
    {
      "chainId": 43114,
      "address": "0x63a72806098Bd3D9520cC43356dD78afe5D386D9",
      "decimals": 18,
      "name": "Aave Token",
      "symbol": "AAVE.e",
      "logoURI": "https://raw.githubusercontent.com/ava-labs/avalanche-bridge-resources/main/tokens/AAVE/logo.png"
    },
    {
      "chainId": 43114,
      "address": "0x2147EFFF675e4A4eE1C2f918d181cDBd7a8E208f",
      "decimals": 18,
      "name": "AlphaToken",
      "symbol": "ALPHA.e",
      "logoURI": "https://raw.githubusercontent.com/ava-labs/avalanche-bridge-resources/main/tokens/ALPHA/logo.png"
    },
    {
      "chainId": 43114,
      "address": "0x98443B96EA4b0858FDF3219Cd13e98C7A4690588",
      "decimals": 18,
      "name": "Basic Attention Token",
      "symbol": "BAT.e",
      "logoURI": "https://raw.githubusercontent.com/ava-labs/avalanche-bridge-resources/main/tokens/BAT/logo.png"
    },
    {
      "chainId": 43114,
      "address": "0x19860CCB0A68fd4213aB9D8266F7bBf05A8dDe98",
      "decimals": 18,
      "name": "Binance USD",
      "symbol": "BUSD.e",
      "logoURI": "https://raw.githubusercontent.com/ava-labs/avalanche-bridge-resources/main/tokens/BUSD/logo.png"
    },
    {
      "chainId": 43114,
      "address": "0xc3048E19E76CB9a3Aa9d77D8C03c29Fc906e2437",
      "decimals": 18,
      "name": "Compound",
      "symbol": "COMP.e",
      "logoURI": "https://raw.githubusercontent.com/ava-labs/avalanche-bridge-resources/main/tokens/COMP/logo.png"
    },
    {
      "chainId": 43114,
      "address": "0x249848BeCA43aC405b8102Ec90Dd5F22CA513c06",
      "decimals": 18,
      "name": "Curve DAO Token",
      "symbol": "CRV.e",
      "logoURI": "https://raw.githubusercontent.com/ava-labs/avalanche-bridge-resources/main/tokens/CRV/logo.png"
    },
    {
      "chainId": 43114,
      "address": "0xd586E7F844cEa2F87f50152665BCbc2C279D8d70",
      "decimals": 18,
      "name": "Dai Stablecoin",
      "symbol": "DAI.e",
      "logoURI": "https://raw.githubusercontent.com/ava-labs/avalanche-bridge-resources/main/tokens/DAI/logo.png"
    },
    {
      "chainId": 43114,
      "address": "0x8a0cAc13c7da965a312f08ea4229c37869e85cB9",
      "decimals": 18,
      "name": "Graph Token",
      "symbol": "GRT.e",
      "logoURI": "https://raw.githubusercontent.com/ava-labs/avalanche-bridge-resources/main/tokens/GRT/logo.png"
    },
    {
      "chainId": 43114,
      "address": "0x5947BB275c521040051D82396192181b413227A3",
      "decimals": 18,
      "name": "ChainLink Token",
      "symbol": "LINK.e",
      "logoURI": "https://raw.githubusercontent.com/ava-labs/avalanche-bridge-resources/main/tokens/LINK/logo.png"
    },
    {
      "chainId": 43114,
      "address": "0x88128fd4b259552A9A1D457f435a6527AAb72d42",
      "decimals": 18,
      "name": "Maker",
      "symbol": "MKR.e",
      "logoURI": "https://raw.githubusercontent.com/ava-labs/avalanche-bridge-resources/main/tokens/MKR/logo.png"
    },
    {
      "chainId": 43114,
      "address": "0x02D980A0D7AF3fb7Cf7Df8cB35d9eDBCF355f665",
      "decimals": 18,
      "name": "SHIBA INU",
      "symbol": "SHIB.e",
      "logoURI": "https://raw.githubusercontent.com/ava-labs/avalanche-bridge-resources/main/tokens/SHIB/logo.png"
    },
    {
      "chainId": 43114,
      "address": "0xBeC243C995409E6520D7C41E404da5dEba4b209B",
      "decimals": 18,
      "name": "Synthetix Network Token",
      "symbol": "SNX.e",
      "logoURI": "https://raw.githubusercontent.com/ava-labs/avalanche-bridge-resources/main/tokens/SNX/logo.png"
    },
    {
      "chainId": 43114,
      "address": "0x37B608519F91f70F2EeB0e5Ed9AF4061722e4F76",
      "decimals": 18,
      "name": "SushiToken",
      "symbol": "SUSHI.e",
      "logoURI": "https://raw.githubusercontent.com/ava-labs/avalanche-bridge-resources/main/tokens/SUSHI/logo.png"
    },
    {
      "chainId": 43114,
      "address": "0xc7B5D72C836e718cDA8888eaf03707fAef675079",
      "decimals": 18,
      "name": "TrustSwap Token",
      "symbol": "SWAP.e",
      "logoURI": "https://raw.githubusercontent.com/ava-labs/avalanche-bridge-resources/main/tokens/SWAP/logo.png"
    },
    {
      "chainId": 43114,
      "address": "0x3Bd2B1c7ED8D396dbb98DED3aEbb41350a5b2339",
      "decimals": 18,
      "name": "UMA Voting Token v1",
      "symbol": "UMA.e",
      "logoURI": "https://raw.githubusercontent.com/ava-labs/avalanche-bridge-resources/main/tokens/UMA/logo.png"
    },
    {
      "chainId": 43114,
      "address": "0x8eBAf22B6F053dFFeaf46f4Dd9eFA95D89ba8580",
      "decimals": 18,
      "name": "Uniswap",
      "symbol": "UNI.e",
      "logoURI": "https://raw.githubusercontent.com/ava-labs/avalanche-bridge-resources/main/tokens/UNI/logo.png"
    },
    {
      "chainId": 43114,
      "address": "0xA7D7079b0FEaD91F3e65f86E8915Cb59c1a4C664",
      "decimals": 6,
      "name": "USD Coin",
      "symbol": "USDC.e",
      "logoURI": "https://raw.githubusercontent.com/ava-labs/avalanche-bridge-resources/main/tokens/USDC/logo.png"
    },
    {
      "chainId": 43114,
      "address": "0xc7198437980c041c805A1EDcbA50c1Ce5db95118",
      "decimals": 6,
      "name": "Tether USD",
      "symbol": "USDT.e",
      "logoURI": "https://raw.githubusercontent.com/ava-labs/avalanche-bridge-resources/main/tokens/USDT/logo.png"
    },
    {
      "chainId": 43114,
      "address": "0x50b7545627a5162F82A992c33b87aDc75187B218",
      "decimals": 8,
      "name": "Wrapped BTC",
      "symbol": "WBTC.e",
      "logoURI": "https://raw.githubusercontent.com/ava-labs/avalanche-bridge-resources/main/tokens/WBTC/logo.png"
    },
    {
      "chainId": 43114,
      "address": "0x49D5c2BdFfac6CE2BFdB6640F4F80f226bc10bAB",
      "decimals": 18,
      "name": "Wrapped ETH",
      "symbol": "WETH.e",
      "logoURI": "https://raw.githubusercontent.com/ava-labs/avalanche-bridge-resources/main/tokens/WETH/logo.png"
    },
    {
      "chainId": 43114,
      "address": "0xaBC9547B534519fF73921b1FBA6E672b5f58D083",
      "decimals": 18,
      "name": "Wootrade Network",
      "symbol": "WOO.e",
      "logoURI": "https://raw.githubusercontent.com/ava-labs/avalanche-bridge-resources/main/tokens/WOO/logo.png"
    },
    {
      "chainId": 43114,
      "address": "0x9eAaC1B23d935365bD7b542Fe22cEEe2922f52dc",
      "decimals": 18,
      "name": "yearn.finance",
      "symbol": "YFI.e",
      "logoURI": "https://raw.githubusercontent.com/ava-labs/avalanche-bridge-resources/main/tokens/YFI/logo.png"
    },
    {
      "chainId": 43114,
      "address": "0x596fA47043f99A4e0F122243B841E55375cdE0d2",
      "decimals": 18,
      "name": "0x Protocol Token",
      "symbol": "ZRX.e",
      "logoURI": "https://raw.githubusercontent.com/ava-labs/avalanche-bridge-resources/main/tokens/ZRX/logo.png"
    }
  ]
}
